# --------------------------------------------------------------------------------------------------
# - This is a grib2database station file. 
#   All points in here will be interpolated (if this station list file is specified in the
#   config file, of course).
# 
#   Please note that the format of the file is necessary! For name, project and contact you
#   can use what you want (but please avoid special characters) except ";" which is the
#   delimiter of this file.
#
#   There is a "mode" flag (developed for Sascha). If it is not in 1,2,3, or 4,
#   we will use bilinear weighting (on regular_ll grids) or inverse weighted
#   (on rotated_ll grids). If 1, 2, 3, or 4, only the grid point value will be used. Where
#   1: means nearest grid point
#   2: means second nearest grid point
#   3: means third nearest grid point
#   4: means 4th nearest grid point.
#   The only difference is that we will set the weights in a special way (so that only
#   the grid point value will be used while storing the data into the database).
#
#   The station number itself is an UNSIGNED MEDIUMINT (database) and thereof has to 
#   be a positive INTEGER smaller than 16'000'000 something.
#   Note that Synop and Tawes stations to have their original number. For special stations
#   like iBox stations or other project stations you can use a wide range of numbers.
#   They have to be unique. And please do NOT choose random numbers. Try to hold
#   them in blocks.
#   Block:           0 to   999'999     For Synop and Tawes Stations (do not use elsewhere)
#   Block:   5'000'000 to 5'999'999     Extra-stations from the ZAMG database wien.extra.
#   Block:   9'001'001 to 9'001'999     iBox project, Ivana Stiperski
#   Block:   9'002'001 to 9'002'999     S-MOS, Markus and Manu
#   Block:   9'003'001 to 9'003'999     KASER, Stephan Galos, Lindsey Nicholson
#   Block:   9'004'001 to 9'004'999     SnowSafe, Jakob Messner, Reto Stauffer
#   Block:   9'010'001 to 9'019'999     SAINT project, Sascha Bellaire
#   Block:   9'100'000 to 8'199'999     ehyd Hydrologischer dienst daten, SnowSafe, Reto Stauffer, Jakob Messner 
# --------------------------------------------------------------------------------------------------
#statnr;name;latitude;longitude;height;mode;project;contact_person
  10382;BERLIN-TEGEL                            ;  52.56667;  13.31666;  37.0; 0; STAGE; Reto Stauffer
   1026;TROMSO                                  ;  69.65000;  18.93333; 103.0; 0; STAGE; Reto Stauffer 
  11120;INNSBRUCK-FLUGHAFEN                     ;  47.25889;  11.35527; 579.0; 0; STAGE; Reto Stauffer
   7157;PARIS-AEROPORT CHARLES DE GAULLE        ;  49.01667;   2.53333; 108.0; 0; STAGE; Reto Stauffer
   3354;NOTTINGHAM/WATNALL                      ;  53.00000;  -0.58333; 117.0; 0; STAGE; Reto Stauffer
  11035;WIEN/HOHE WARTE                         ;  48.24861;  16.35638; 198.0; 0; STAGE; Reto Stauffer
  11240;GRAZ-THALERHOF-FLUGHAFEN                ;  46.98833;  15.44166; 340.0; 0; STAGE; Reto Stauffer
