# --------------------------------------------------------------------------------------------------
# This is a station list for the GENSvisualizer, the GFS ENSEMBLE FORECAST 
# meteogram downloader/visualizer. The format of the station list is identical
# with the station lists we are using for the Gribfiles2Database tool and other
# stuff (I try to use the same format everywhere which makes it easyer to adapt
# stations and stuff) but the entries can be different!!!!!
# Do not use the stationlist for the Gribfiles2Database or other tools without
# cross checking and thinking aobut it!
#
# For the meteogram visualizer I sometimes change names or add speical stations
# somewhere around the globe -- which are not propper to use for other tools.
# --------------------------------------------------------------------------------------------------
#statnr;name;latitude;longitude;height;mode;project;contact_person
  63791;KILIMANJARO                             ;  37.06667; -2.750000; 891.0; 0; ertel2 meteogram;Reto Stauffer
